-- Merging decision tree log ---
manifest
ADDED from D:\android_project\B2 Project\shoukin\Projects\Securitygard\app\src\main\AndroidManifest.xml:2:1-102:12
INJECTED from D:\android_project\B2 Project\shoukin\Projects\Securitygard\app\src\main\AndroidManifest.xml:2:1-102:12
INJECTED from D:\android_project\B2 Project\shoukin\Projects\Securitygard\app\src\main\AndroidManifest.xml:2:1-102:12
INJECTED from D:\android_project\B2 Project\shoukin\Projects\Securitygard\app\src\main\AndroidManifest.xml:2:1-102:12
MERGED from [com.google.firebase:firebase-core:10.0.1] C:\Users\u\.gradle\caches\transforms-1\files-1.1\firebase-core-10.0.1.aar\a3161e4b5fd3449fa1a14c7ec25d56a2\AndroidManifest.xml:2:1-6:12
MERGED from [com.google.firebase:firebase-messaging:10.0.1] C:\Users\u\.gradle\caches\transforms-1\files-1.1\firebase-messaging-10.0.1.aar\b17a9b4fe22e2d5832c19b5dceca737b\AndroidManifest.xml:16:1-30:12
MERGED from [com.google.firebase:firebase-analytics:10.0.1] C:\Users\u\.gradle\caches\transforms-1\files-1.1\firebase-analytics-10.0.1.aar\b4196c9cffe670cc96474786719121e2\AndroidManifest.xml:16:1-34:12
MERGED from [com.google.firebase:firebase-analytics-impl:10.0.1] C:\Users\u\.gradle\caches\transforms-1\files-1.1\firebase-analytics-impl-10.0.1.aar\710fa0bddaa34df451db663408657efd\AndroidManifest.xml:16:1-29:12
MERGED from [com.google.firebase:firebase-iid:10.0.1] C:\Users\u\.gradle\caches\transforms-1\files-1.1\firebase-iid-10.0.1.aar\1fdaa36dba592fddc837f4564218f6ad\AndroidManifest.xml:16:1-51:12
MERGED from [com.google.firebase:firebase-common:10.0.1] C:\Users\u\.gradle\caches\transforms-1\files-1.1\firebase-common-10.0.1.aar\d0ec1737f031c93a27eec31f069b6f0c\AndroidManifest.xml:2:1-8:12
MERGED from [com.google.android.gms:play-services-tasks:10.0.1] C:\Users\u\.gradle\caches\transforms-1\files-1.1\play-services-tasks-10.0.1.aar\f735c1ef62f97b04361aa8d6f47f4574\AndroidManifest.xml:2:1-5:12
MERGED from [com.google.android.gms:play-services-basement:10.0.1] C:\Users\u\.gradle\caches\transforms-1\files-1.1\play-services-basement-10.0.1.aar\79e0b8ab6ac4bfef522bc2c5a4ed176f\AndroidManifest.xml:16:1-23:12
MERGED from [com.android.support:support-v4:28.0.0] C:\Users\u\.gradle\caches\transforms-1\files-1.1\support-v4-28.0.0.aar\939a9d7cdb9d5b77699dddc97dd5431c\AndroidManifest.xml:17:1-22:12
MERGED from [com.android.support:appcompat-v7:28.0.0] C:\Users\u\.gradle\caches\transforms-1\files-1.1\appcompat-v7-28.0.0.aar\8b23e7b170664b6e574ce0e0ba706eec\AndroidManifest.xml:17:1-22:12
MERGED from [:library] D:\android_project\B2 Project\shoukin\Projects\Securitygard\library\build\intermediates\library_manifest\debug\AndroidManifest.xml:2:1-21:12
MERGED from [com.android.support:support-media-compat:28.0.0] C:\Users\u\.gradle\caches\transforms-1\files-1.1\support-media-compat-28.0.0.aar\ca5687d270c981a3e1c363ce5bc188df\AndroidManifest.xml:17:1-22:12
MERGED from [com.android.support:support-fragment:28.0.0] C:\Users\u\.gradle\caches\transforms-1\files-1.1\support-fragment-28.0.0.aar\7a5f7d9441c63fec156ee7cf4658269e\AndroidManifest.xml:17:1-22:12
MERGED from [com.android.support:animated-vector-drawable:28.0.0] C:\Users\u\.gradle\caches\transforms-1\files-1.1\animated-vector-drawable-28.0.0.aar\422950a5e2569393ea46320af31f5bd4\AndroidManifest.xml:17:1-22:12
MERGED from [com.android.support:support-core-ui:28.0.0] C:\Users\u\.gradle\caches\transforms-1\files-1.1\support-core-ui-28.0.0.aar\2ef1ec41029ad3594987bd8a30f47c90\AndroidManifest.xml:17:1-22:12
MERGED from [com.android.support:support-core-utils:28.0.0] C:\Users\u\.gradle\caches\transforms-1\files-1.1\support-core-utils-28.0.0.aar\4123448a2ad4c10f0495cc3c3709cff5\AndroidManifest.xml:17:1-22:12
MERGED from [com.android.support:support-vector-drawable:28.0.0] C:\Users\u\.gradle\caches\transforms-1\files-1.1\support-vector-drawable-28.0.0.aar\daff59afb86195e269844604a809fd51\AndroidManifest.xml:17:1-22:12
MERGED from [com.android.support:loader:28.0.0] C:\Users\u\.gradle\caches\transforms-1\files-1.1\loader-28.0.0.aar\f7ef36c04114fa4edb28de447b639b00\AndroidManifest.xml:17:1-22:12
MERGED from [com.android.support:viewpager:28.0.0] C:\Users\u\.gradle\caches\transforms-1\files-1.1\viewpager-28.0.0.aar\772e232533c51685b07ded49daca3fdf\AndroidManifest.xml:17:1-22:12
MERGED from [com.android.support:coordinatorlayout:28.0.0] C:\Users\u\.gradle\caches\transforms-1\files-1.1\coordinatorlayout-28.0.0.aar\4ff121a10b9f8cfbd97e30b2beca01e6\AndroidManifest.xml:17:1-22:12
MERGED from [com.android.support:drawerlayout:28.0.0] C:\Users\u\.gradle\caches\transforms-1\files-1.1\drawerlayout-28.0.0.aar\d3b17ec053fcdb8b6c9dffaebb16254e\AndroidManifest.xml:17:1-22:12
MERGED from [com.android.support:slidingpanelayout:28.0.0] C:\Users\u\.gradle\caches\transforms-1\files-1.1\slidingpanelayout-28.0.0.aar\9f229cfb17479e197660bdc1fd83404c\AndroidManifest.xml:17:1-22:12
MERGED from [com.android.support:customview:28.0.0] C:\Users\u\.gradle\caches\transforms-1\files-1.1\customview-28.0.0.aar\515dfb2c6b0da0929ee6a859ee9d8c2e\AndroidManifest.xml:17:1-22:12
MERGED from [com.android.support:swiperefreshlayout:28.0.0] C:\Users\u\.gradle\caches\transforms-1\files-1.1\swiperefreshlayout-28.0.0.aar\f9f70292ff400213741fdc04d20a7e52\AndroidManifest.xml:17:1-22:12
MERGED from [com.android.support:asynclayoutinflater:28.0.0] C:\Users\u\.gradle\caches\transforms-1\files-1.1\asynclayoutinflater-28.0.0.aar\68a57a6f2b052f8f8b7d349be055feae\AndroidManifest.xml:17:1-22:12
MERGED from [com.android.support:support-compat:28.0.0] C:\Users\u\.gradle\caches\transforms-1\files-1.1\support-compat-28.0.0.aar\1a529bd87ecb345c73220ba1e1cb6b69\AndroidManifest.xml:17:1-24:12
MERGED from [com.android.support:versionedparcelable:28.0.0] C:\Users\u\.gradle\caches\transforms-1\files-1.1\versionedparcelable-28.0.0.aar\011f574da5cd03c86ec825a85898cf1e\AndroidManifest.xml:17:1-25:12
MERGED from [com.android.support:cursoradapter:28.0.0] C:\Users\u\.gradle\caches\transforms-1\files-1.1\cursoradapter-28.0.0.aar\a19f2bab74c63291209fc61e0e24aaea\AndroidManifest.xml:17:1-22:12
MERGED from [android.arch.lifecycle:runtime:1.1.1] C:\Users\u\.gradle\caches\transforms-1\files-1.1\runtime-1.1.1.aar\8283124dc37e4cb3680992377b1342e7\AndroidManifest.xml:17:1-22:12
MERGED from [com.android.support:documentfile:28.0.0] C:\Users\u\.gradle\caches\transforms-1\files-1.1\documentfile-28.0.0.aar\fd94a13992cf7880ab7f517e4ffedba6\AndroidManifest.xml:17:1-22:12
MERGED from [com.android.support:localbroadcastmanager:28.0.0] C:\Users\u\.gradle\caches\transforms-1\files-1.1\localbroadcastmanager-28.0.0.aar\8582080139a49550f3946b47206fc6e5\AndroidManifest.xml:17:1-22:12
MERGED from [com.android.support:print:28.0.0] C:\Users\u\.gradle\caches\transforms-1\files-1.1\print-28.0.0.aar\17f13791aad65c7912e93552d1eb4789\AndroidManifest.xml:17:1-22:12
MERGED from [com.android.support:interpolator:28.0.0] C:\Users\u\.gradle\caches\transforms-1\files-1.1\interpolator-28.0.0.aar\5c94b1879111c8229c5940257c82a211\AndroidManifest.xml:17:1-22:12
MERGED from [android.arch.lifecycle:viewmodel:1.1.1] C:\Users\u\.gradle\caches\transforms-1\files-1.1\viewmodel-1.1.1.aar\124e98bafdc251301b1f983895d49d22\AndroidManifest.xml:17:1-22:12
MERGED from [android.arch.lifecycle:livedata:1.1.1] C:\Users\u\.gradle\caches\transforms-1\files-1.1\livedata-1.1.1.aar\9e0f2f002f8d6e617c96478bad9b07aa\AndroidManifest.xml:17:1-22:12
MERGED from [android.arch.lifecycle:livedata-core:1.1.1] C:\Users\u\.gradle\caches\transforms-1\files-1.1\livedata-core-1.1.1.aar\5d19707c5dbe8db6130a5da0d75dbfa0\AndroidManifest.xml:17:1-22:12
MERGED from [android.arch.core:runtime:1.1.1] C:\Users\u\.gradle\caches\transforms-1\files-1.1\runtime-1.1.1.aar\0e73d56c88674190af34b9da387ca141\AndroidManifest.xml:17:1-22:12
INJECTED from D:\android_project\B2 Project\shoukin\Projects\Securitygard\app\src\main\AndroidManifest.xml:2:1-102:12
INJECTED from D:\android_project\B2 Project\shoukin\Projects\Securitygard\app\src\main\AndroidManifest.xml:2:1-102:12
INJECTED from D:\android_project\B2 Project\shoukin\Projects\Securitygard\app\src\main\AndroidManifest.xml:2:1-102:12
	package
		ADDED from D:\android_project\B2 Project\shoukin\Projects\Securitygard\app\src\main\AndroidManifest.xml:3:5-32
		INJECTED from D:\android_project\B2 Project\shoukin\Projects\Securitygard\app\src\main\AndroidManifest.xml
		INJECTED from D:\android_project\B2 Project\shoukin\Projects\Securitygard\app\src\main\AndroidManifest.xml
	android:versionName
		ADDED from D:\android_project\B2 Project\shoukin\Projects\Securitygard\app\src\main\AndroidManifest.xml:5:5-30
		INJECTED from D:\android_project\B2 Project\shoukin\Projects\Securitygard\app\src\main\AndroidManifest.xml
		INJECTED from D:\android_project\B2 Project\shoukin\Projects\Securitygard\app\src\main\AndroidManifest.xml
	xmlns:android
		ADDED from D:\android_project\B2 Project\shoukin\Projects\Securitygard\app\src\main\AndroidManifest.xml:2:11-69
	android:versionCode
		ADDED from D:\android_project\B2 Project\shoukin\Projects\Securitygard\app\src\main\AndroidManifest.xml:4:5-29
		INJECTED from D:\android_project\B2 Project\shoukin\Projects\Securitygard\app\src\main\AndroidManifest.xml
		INJECTED from D:\android_project\B2 Project\shoukin\Projects\Securitygard\app\src\main\AndroidManifest.xml
uses-permission#android.permission.INTERNET
ADDED from D:\android_project\B2 Project\shoukin\Projects\Securitygard\app\src\main\AndroidManifest.xml:9:5-67
MERGED from [com.google.firebase:firebase-analytics:10.0.1] C:\Users\u\.gradle\caches\transforms-1\files-1.1\firebase-analytics-10.0.1.aar\b4196c9cffe670cc96474786719121e2\AndroidManifest.xml:20:5-66
MERGED from [com.google.firebase:firebase-analytics:10.0.1] C:\Users\u\.gradle\caches\transforms-1\files-1.1\firebase-analytics-10.0.1.aar\b4196c9cffe670cc96474786719121e2\AndroidManifest.xml:20:5-66
MERGED from [com.google.firebase:firebase-analytics-impl:10.0.1] C:\Users\u\.gradle\caches\transforms-1\files-1.1\firebase-analytics-impl-10.0.1.aar\710fa0bddaa34df451db663408657efd\AndroidManifest.xml:20:5-66
MERGED from [com.google.firebase:firebase-analytics-impl:10.0.1] C:\Users\u\.gradle\caches\transforms-1\files-1.1\firebase-analytics-impl-10.0.1.aar\710fa0bddaa34df451db663408657efd\AndroidManifest.xml:20:5-66
MERGED from [com.google.firebase:firebase-iid:10.0.1] C:\Users\u\.gradle\caches\transforms-1\files-1.1\firebase-iid-10.0.1.aar\1fdaa36dba592fddc837f4564218f6ad\AndroidManifest.xml:20:5-66
MERGED from [com.google.firebase:firebase-iid:10.0.1] C:\Users\u\.gradle\caches\transforms-1\files-1.1\firebase-iid-10.0.1.aar\1fdaa36dba592fddc837f4564218f6ad\AndroidManifest.xml:20:5-66
	android:name
		ADDED from D:\android_project\B2 Project\shoukin\Projects\Securitygard\app\src\main\AndroidManifest.xml:9:22-64
uses-permission#android.permission.ACCESS_FINE_LOCATION
ADDED from D:\android_project\B2 Project\shoukin\Projects\Securitygard\app\src\main\AndroidManifest.xml:10:5-79
	android:name
		ADDED from D:\android_project\B2 Project\shoukin\Projects\Securitygard\app\src\main\AndroidManifest.xml:10:22-76
uses-permission#android.permission.ACCESS_COARSE_LOCATION
ADDED from D:\android_project\B2 Project\shoukin\Projects\Securitygard\app\src\main\AndroidManifest.xml:11:5-81
	android:name
		ADDED from D:\android_project\B2 Project\shoukin\Projects\Securitygard\app\src\main\AndroidManifest.xml:11:22-78
uses-permission#android.permission.ACCESS_NETWORK_STATE
ADDED from D:\android_project\B2 Project\shoukin\Projects\Securitygard\app\src\main\AndroidManifest.xml:12:5-79
MERGED from [com.google.firebase:firebase-analytics:10.0.1] C:\Users\u\.gradle\caches\transforms-1\files-1.1\firebase-analytics-10.0.1.aar\b4196c9cffe670cc96474786719121e2\AndroidManifest.xml:21:5-78
MERGED from [com.google.firebase:firebase-analytics:10.0.1] C:\Users\u\.gradle\caches\transforms-1\files-1.1\firebase-analytics-10.0.1.aar\b4196c9cffe670cc96474786719121e2\AndroidManifest.xml:21:5-78
MERGED from [com.google.firebase:firebase-analytics-impl:10.0.1] C:\Users\u\.gradle\caches\transforms-1\files-1.1\firebase-analytics-impl-10.0.1.aar\710fa0bddaa34df451db663408657efd\AndroidManifest.xml:21:5-78
MERGED from [com.google.firebase:firebase-analytics-impl:10.0.1] C:\Users\u\.gradle\caches\transforms-1\files-1.1\firebase-analytics-impl-10.0.1.aar\710fa0bddaa34df451db663408657efd\AndroidManifest.xml:21:5-78
MERGED from [com.google.firebase:firebase-iid:10.0.1] C:\Users\u\.gradle\caches\transforms-1\files-1.1\firebase-iid-10.0.1.aar\1fdaa36dba592fddc837f4564218f6ad\AndroidManifest.xml:19:5-78
MERGED from [com.google.firebase:firebase-iid:10.0.1] C:\Users\u\.gradle\caches\transforms-1\files-1.1\firebase-iid-10.0.1.aar\1fdaa36dba592fddc837f4564218f6ad\AndroidManifest.xml:19:5-78
	android:name
		ADDED from D:\android_project\B2 Project\shoukin\Projects\Securitygard\app\src\main\AndroidManifest.xml:12:22-76
uses-permission#android.permission.WRITE_EXTERNAL_STORAGE
ADDED from D:\android_project\B2 Project\shoukin\Projects\Securitygard\app\src\main\AndroidManifest.xml:13:5-81
	android:name
		ADDED from D:\android_project\B2 Project\shoukin\Projects\Securitygard\app\src\main\AndroidManifest.xml:13:22-78
uses-permission#android.permission.RECORD_AUDIO
ADDED from D:\android_project\B2 Project\shoukin\Projects\Securitygard\app\src\main\AndroidManifest.xml:14:5-71
	android:name
		ADDED from D:\android_project\B2 Project\shoukin\Projects\Securitygard\app\src\main\AndroidManifest.xml:14:22-68
uses-permission#android.permission.CAMERA
ADDED from D:\android_project\B2 Project\shoukin\Projects\Securitygard\app\src\main\AndroidManifest.xml:17:5-81
	android:name
		ADDED from D:\android_project\B2 Project\shoukin\Projects\Securitygard\app\src\main\AndroidManifest.xml:17:22-62
application
ADDED from D:\android_project\B2 Project\shoukin\Projects\Securitygard\app\src\main\AndroidManifest.xml:20:5-100:19
MERGED from [com.google.firebase:firebase-core:10.0.1] C:\Users\u\.gradle\caches\transforms-1\files-1.1\firebase-core-10.0.1.aar\a3161e4b5fd3449fa1a14c7ec25d56a2\AndroidManifest.xml:5:5-20
MERGED from [com.google.firebase:firebase-core:10.0.1] C:\Users\u\.gradle\caches\transforms-1\files-1.1\firebase-core-10.0.1.aar\a3161e4b5fd3449fa1a14c7ec25d56a2\AndroidManifest.xml:5:5-20
MERGED from [com.google.firebase:firebase-messaging:10.0.1] C:\Users\u\.gradle\caches\transforms-1\files-1.1\firebase-messaging-10.0.1.aar\b17a9b4fe22e2d5832c19b5dceca737b\AndroidManifest.xml:19:5-29:19
MERGED from [com.google.firebase:firebase-messaging:10.0.1] C:\Users\u\.gradle\caches\transforms-1\files-1.1\firebase-messaging-10.0.1.aar\b17a9b4fe22e2d5832c19b5dceca737b\AndroidManifest.xml:19:5-29:19
MERGED from [com.google.firebase:firebase-analytics:10.0.1] C:\Users\u\.gradle\caches\transforms-1\files-1.1\firebase-analytics-10.0.1.aar\b4196c9cffe670cc96474786719121e2\AndroidManifest.xml:24:5-33:19
MERGED from [com.google.firebase:firebase-analytics:10.0.1] C:\Users\u\.gradle\caches\transforms-1\files-1.1\firebase-analytics-10.0.1.aar\b4196c9cffe670cc96474786719121e2\AndroidManifest.xml:24:5-33:19
MERGED from [com.google.firebase:firebase-analytics-impl:10.0.1] C:\Users\u\.gradle\caches\transforms-1\files-1.1\firebase-analytics-impl-10.0.1.aar\710fa0bddaa34df451db663408657efd\AndroidManifest.xml:24:5-28:19
MERGED from [com.google.firebase:firebase-analytics-impl:10.0.1] C:\Users\u\.gradle\caches\transforms-1\files-1.1\firebase-analytics-impl-10.0.1.aar\710fa0bddaa34df451db663408657efd\AndroidManifest.xml:24:5-28:19
MERGED from [com.google.firebase:firebase-iid:10.0.1] C:\Users\u\.gradle\caches\transforms-1\files-1.1\firebase-iid-10.0.1.aar\1fdaa36dba592fddc837f4564218f6ad\AndroidManifest.xml:28:5-50:19
MERGED from [com.google.firebase:firebase-iid:10.0.1] C:\Users\u\.gradle\caches\transforms-1\files-1.1\firebase-iid-10.0.1.aar\1fdaa36dba592fddc837f4564218f6ad\AndroidManifest.xml:28:5-50:19
MERGED from [com.google.firebase:firebase-common:10.0.1] C:\Users\u\.gradle\caches\transforms-1\files-1.1\firebase-common-10.0.1.aar\d0ec1737f031c93a27eec31f069b6f0c\AndroidManifest.xml:4:5-7:19
MERGED from [com.google.firebase:firebase-common:10.0.1] C:\Users\u\.gradle\caches\transforms-1\files-1.1\firebase-common-10.0.1.aar\d0ec1737f031c93a27eec31f069b6f0c\AndroidManifest.xml:4:5-7:19
MERGED from [com.google.android.gms:play-services-tasks:10.0.1] C:\Users\u\.gradle\caches\transforms-1\files-1.1\play-services-tasks-10.0.1.aar\f735c1ef62f97b04361aa8d6f47f4574\AndroidManifest.xml:4:5-19
MERGED from [com.google.android.gms:play-services-tasks:10.0.1] C:\Users\u\.gradle\caches\transforms-1\files-1.1\play-services-tasks-10.0.1.aar\f735c1ef62f97b04361aa8d6f47f4574\AndroidManifest.xml:4:5-19
MERGED from [com.google.android.gms:play-services-basement:10.0.1] C:\Users\u\.gradle\caches\transforms-1\files-1.1\play-services-basement-10.0.1.aar\79e0b8ab6ac4bfef522bc2c5a4ed176f\AndroidManifest.xml:19:5-21:19
MERGED from [com.google.android.gms:play-services-basement:10.0.1] C:\Users\u\.gradle\caches\transforms-1\files-1.1\play-services-basement-10.0.1.aar\79e0b8ab6ac4bfef522bc2c5a4ed176f\AndroidManifest.xml:19:5-21:19
MERGED from [:library] D:\android_project\B2 Project\shoukin\Projects\Securitygard\library\build\intermediates\library_manifest\debug\AndroidManifest.xml:11:5-19:19
MERGED from [:library] D:\android_project\B2 Project\shoukin\Projects\Securitygard\library\build\intermediates\library_manifest\debug\AndroidManifest.xml:11:5-19:19
MERGED from [com.android.support:support-compat:28.0.0] C:\Users\u\.gradle\caches\transforms-1\files-1.1\support-compat-28.0.0.aar\1a529bd87ecb345c73220ba1e1cb6b69\AndroidManifest.xml:22:5-94
MERGED from [com.android.support:support-compat:28.0.0] C:\Users\u\.gradle\caches\transforms-1\files-1.1\support-compat-28.0.0.aar\1a529bd87ecb345c73220ba1e1cb6b69\AndroidManifest.xml:22:5-94
MERGED from [com.android.support:versionedparcelable:28.0.0] C:\Users\u\.gradle\caches\transforms-1\files-1.1\versionedparcelable-28.0.0.aar\011f574da5cd03c86ec825a85898cf1e\AndroidManifest.xml:22:5-23:19
MERGED from [com.android.support:versionedparcelable:28.0.0] C:\Users\u\.gradle\caches\transforms-1\files-1.1\versionedparcelable-28.0.0.aar\011f574da5cd03c86ec825a85898cf1e\AndroidManifest.xml:22:5-23:19
	android:appComponentFactory
		ADDED from [com.android.support:support-compat:28.0.0] C:\Users\u\.gradle\caches\transforms-1\files-1.1\support-compat-28.0.0.aar\1a529bd87ecb345c73220ba1e1cb6b69\AndroidManifest.xml:22:18-91
	android:label
		ADDED from D:\android_project\B2 Project\shoukin\Projects\Securitygard\app\src\main\AndroidManifest.xml:23:9-41
	android:largeHeap
		ADDED from D:\android_project\B2 Project\shoukin\Projects\Securitygard\app\src\main\AndroidManifest.xml:24:9-33
	android:icon
		ADDED from D:\android_project\B2 Project\shoukin\Projects\Securitygard\app\src\main\AndroidManifest.xml:22:9-45
	android:allowBackup
		ADDED from D:\android_project\B2 Project\shoukin\Projects\Securitygard\app\src\main\AndroidManifest.xml:21:9-35
	android:theme
		ADDED from D:\android_project\B2 Project\shoukin\Projects\Securitygard\app\src\main\AndroidManifest.xml:26:9-40
	android:name
		ADDED from D:\android_project\B2 Project\shoukin\Projects\Securitygard\app\src\main\AndroidManifest.xml:25:9-30
activity#com.b2infosoft.gt.MainActivity
ADDED from D:\android_project\B2 Project\shoukin\Projects\Securitygard\app\src\main\AndroidManifest.xml:27:9-32:20
	android:label
		ADDED from D:\android_project\B2 Project\shoukin\Projects\Securitygard\app\src\main\AndroidManifest.xml:29:13-45
	android:launchMode
		ADDED from D:\android_project\B2 Project\shoukin\Projects\Securitygard\app\src\main\AndroidManifest.xml:30:13-44
	android:windowSoftInputMode
		ADDED from D:\android_project\B2 Project\shoukin\Projects\Securitygard\app\src\main\AndroidManifest.xml:31:13-55
	android:name
		ADDED from D:\android_project\B2 Project\shoukin\Projects\Securitygard\app\src\main\AndroidManifest.xml:28:13-41
activity#com.b2infosoft.gt.rajesh.sign_1.FingerPaint
ADDED from D:\android_project\B2 Project\shoukin\Projects\Securitygard\app\src\main\AndroidManifest.xml:33:9-36:58
	android:label
		ADDED from D:\android_project\B2 Project\shoukin\Projects\Securitygard\app\src\main\AndroidManifest.xml:35:13-64
	android:windowSoftInputMode
		ADDED from D:\android_project\B2 Project\shoukin\Projects\Securitygard\app\src\main\AndroidManifest.xml:36:13-55
	android:name
		ADDED from D:\android_project\B2 Project\shoukin\Projects\Securitygard\app\src\main\AndroidManifest.xml:34:13-54
activity#com.b2infosoft.gt.SlideMenu
ADDED from D:\android_project\B2 Project\shoukin\Projects\Securitygard\app\src\main\AndroidManifest.xml:37:9-42:58
	android:screenOrientation
		ADDED from D:\android_project\B2 Project\shoukin\Projects\Securitygard\app\src\main\AndroidManifest.xml:40:13-49
	android:label
		ADDED from D:\android_project\B2 Project\shoukin\Projects\Securitygard\app\src\main\AndroidManifest.xml:39:13-62
	android:windowSoftInputMode
		ADDED from D:\android_project\B2 Project\shoukin\Projects\Securitygard\app\src\main\AndroidManifest.xml:42:13-55
	android:configChanges
		ADDED from D:\android_project\B2 Project\shoukin\Projects\Securitygard\app\src\main\AndroidManifest.xml:41:13-74
	android:name
		ADDED from D:\android_project\B2 Project\shoukin\Projects\Securitygard\app\src\main\AndroidManifest.xml:38:13-38
activity#com.b2infosoft.gt.UploadSign
ADDED from D:\android_project\B2 Project\shoukin\Projects\Securitygard\app\src\main\AndroidManifest.xml:43:9-46:58
	android:label
		ADDED from D:\android_project\B2 Project\shoukin\Projects\Securitygard\app\src\main\AndroidManifest.xml:45:13-62
	android:windowSoftInputMode
		ADDED from D:\android_project\B2 Project\shoukin\Projects\Securitygard\app\src\main\AndroidManifest.xml:46:13-55
	android:name
		ADDED from D:\android_project\B2 Project\shoukin\Projects\Securitygard\app\src\main\AndroidManifest.xml:44:13-39
activity#com.b2infosoft.gt.rajesh.sign_2.CaptureSignature
ADDED from D:\android_project\B2 Project\shoukin\Projects\Securitygard\app\src\main\AndroidManifest.xml:47:9-51:58
	android:screenOrientation
		ADDED from D:\android_project\B2 Project\shoukin\Projects\Securitygard\app\src\main\AndroidManifest.xml:50:13-49
	android:label
		ADDED from D:\android_project\B2 Project\shoukin\Projects\Securitygard\app\src\main\AndroidManifest.xml:49:13-62
	android:windowSoftInputMode
		ADDED from D:\android_project\B2 Project\shoukin\Projects\Securitygard\app\src\main\AndroidManifest.xml:51:13-55
	android:name
		ADDED from D:\android_project\B2 Project\shoukin\Projects\Securitygard\app\src\main\AndroidManifest.xml:48:13-59
activity#com.b2infosoft.gt.NotificationPage
ADDED from D:\android_project\B2 Project\shoukin\Projects\Securitygard\app\src\main\AndroidManifest.xml:53:9-56:58
	android:label
		ADDED from D:\android_project\B2 Project\shoukin\Projects\Securitygard\app\src\main\AndroidManifest.xml:55:13-62
	android:windowSoftInputMode
		ADDED from D:\android_project\B2 Project\shoukin\Projects\Securitygard\app\src\main\AndroidManifest.xml:56:13-55
	android:name
		ADDED from D:\android_project\B2 Project\shoukin\Projects\Securitygard\app\src\main\AndroidManifest.xml:54:13-45
activity#com.b2infosoft.gt.MonthDetails
ADDED from D:\android_project\B2 Project\shoukin\Projects\Securitygard\app\src\main\AndroidManifest.xml:57:9-66:20
	android:label
		ADDED from D:\android_project\B2 Project\shoukin\Projects\Securitygard\app\src\main\AndroidManifest.xml:59:13-65
	android:windowSoftInputMode
		ADDED from D:\android_project\B2 Project\shoukin\Projects\Securitygard\app\src\main\AndroidManifest.xml:60:13-55
	android:name
		ADDED from D:\android_project\B2 Project\shoukin\Projects\Securitygard\app\src\main\AndroidManifest.xml:58:13-41
meta-data#android.support.PARENT_ACTIVITY
ADDED from D:\android_project\B2 Project\shoukin\Projects\Securitygard\app\src\main\AndroidManifest.xml:63:13-65:63
	android:value
		ADDED from D:\android_project\B2 Project\shoukin\Projects\Securitygard\app\src\main\AndroidManifest.xml:65:17-60
	android:name
		ADDED from D:\android_project\B2 Project\shoukin\Projects\Securitygard\app\src\main\AndroidManifest.xml:64:17-63
activity#com.b2infosoft.gt.rajesh.sign.DrawingActivity
ADDED from D:\android_project\B2 Project\shoukin\Projects\Securitygard\app\src\main\AndroidManifest.xml:67:9-65
	android:name
		ADDED from D:\android_project\B2 Project\shoukin\Projects\Securitygard\app\src\main\AndroidManifest.xml:67:19-62
service#com.b2infosoft.gt.services.LocationUpdate
ADDED from D:\android_project\B2 Project\shoukin\Projects\Securitygard\app\src\main\AndroidManifest.xml:69:9-68
	android:name
		ADDED from D:\android_project\B2 Project\shoukin\Projects\Securitygard\app\src\main\AndroidManifest.xml:69:18-57
activity#com.b2infosoft.gt.Splash
ADDED from D:\android_project\B2 Project\shoukin\Projects\Securitygard\app\src\main\AndroidManifest.xml:70:9-80:20
	android:screenOrientation
		ADDED from D:\android_project\B2 Project\shoukin\Projects\Securitygard\app\src\main\AndroidManifest.xml:72:13-49
	android:theme
		ADDED from D:\android_project\B2 Project\shoukin\Projects\Securitygard\app\src\main\AndroidManifest.xml:73:13-54
	android:name
		ADDED from D:\android_project\B2 Project\shoukin\Projects\Securitygard\app\src\main\AndroidManifest.xml:71:13-35
intent-filter#action:name:android.intent.action.MAIN+category:name:android.intent.category.LAUNCHER
ADDED from D:\android_project\B2 Project\shoukin\Projects\Securitygard\app\src\main\AndroidManifest.xml:76:13-79:29
action#android.intent.action.MAIN
ADDED from D:\android_project\B2 Project\shoukin\Projects\Securitygard\app\src\main\AndroidManifest.xml:77:17-69
	android:name
		ADDED from D:\android_project\B2 Project\shoukin\Projects\Securitygard\app\src\main\AndroidManifest.xml:77:25-66
category#android.intent.category.LAUNCHER
ADDED from D:\android_project\B2 Project\shoukin\Projects\Securitygard\app\src\main\AndroidManifest.xml:78:17-77
	android:name
		ADDED from D:\android_project\B2 Project\shoukin\Projects\Securitygard\app\src\main\AndroidManifest.xml:78:27-74
service#com.b2infosoft.gt.MyFirebaseInstanceIDService
ADDED from D:\android_project\B2 Project\shoukin\Projects\Securitygard\app\src\main\AndroidManifest.xml:83:9-88:19
	android:name
		ADDED from D:\android_project\B2 Project\shoukin\Projects\Securitygard\app\src\main\AndroidManifest.xml:84:13-56
intent-filter#action:name:com.google.firebase.INSTANCE_ID_EVENT
ADDED from D:\android_project\B2 Project\shoukin\Projects\Securitygard\app\src\main\AndroidManifest.xml:85:13-87:29
action#com.google.firebase.INSTANCE_ID_EVENT
ADDED from D:\android_project\B2 Project\shoukin\Projects\Securitygard\app\src\main\AndroidManifest.xml:86:17-79
	android:name
		ADDED from D:\android_project\B2 Project\shoukin\Projects\Securitygard\app\src\main\AndroidManifest.xml:86:25-77
activity#com.jmolsmobile.landscapevideocapture.VideoCaptureActivity
ADDED from D:\android_project\B2 Project\shoukin\Projects\Securitygard\app\src\main\AndroidManifest.xml:89:9-93:20
MERGED from [:library] D:\android_project\B2 Project\shoukin\Projects\Securitygard\library\build\intermediates\library_manifest\debug\AndroidManifest.xml:15:9-18:20
MERGED from [:library] D:\android_project\B2 Project\shoukin\Projects\Securitygard\library\build\intermediates\library_manifest\debug\AndroidManifest.xml:15:9-18:20
	android:screenOrientation
		ADDED from D:\android_project\B2 Project\shoukin\Projects\Securitygard\app\src\main\AndroidManifest.xml:91:13-50
	android:label
		ADDED from [:library] D:\android_project\B2 Project\shoukin\Projects\Securitygard\library\build\intermediates\library_manifest\debug\AndroidManifest.xml:17:13-45
	android:name
		ADDED from D:\android_project\B2 Project\shoukin\Projects\Securitygard\app\src\main\AndroidManifest.xml:90:13-86
service#com.b2infosoft.gt.MyFirebaseMessagingService
ADDED from D:\android_project\B2 Project\shoukin\Projects\Securitygard\app\src\main\AndroidManifest.xml:94:9-99:19
	android:name
		ADDED from D:\android_project\B2 Project\shoukin\Projects\Securitygard\app\src\main\AndroidManifest.xml:95:13-55
intent-filter#action:name:com.google.firebase.MESSAGING_EVENT
ADDED from D:\android_project\B2 Project\shoukin\Projects\Securitygard\app\src\main\AndroidManifest.xml:96:13-98:29
action#com.google.firebase.MESSAGING_EVENT
ADDED from D:\android_project\B2 Project\shoukin\Projects\Securitygard\app\src\main\AndroidManifest.xml:97:17-77
	android:name
		ADDED from D:\android_project\B2 Project\shoukin\Projects\Securitygard\app\src\main\AndroidManifest.xml:97:25-75
uses-sdk
INJECTED from D:\android_project\B2 Project\shoukin\Projects\Securitygard\app\src\main\AndroidManifest.xml reason: use-sdk injection requested
INJECTED from D:\android_project\B2 Project\shoukin\Projects\Securitygard\app\src\main\AndroidManifest.xml
INJECTED from D:\android_project\B2 Project\shoukin\Projects\Securitygard\app\src\main\AndroidManifest.xml
MERGED from [com.google.firebase:firebase-core:10.0.1] C:\Users\u\.gradle\caches\transforms-1\files-1.1\firebase-core-10.0.1.aar\a3161e4b5fd3449fa1a14c7ec25d56a2\AndroidManifest.xml:4:5-42
MERGED from [com.google.firebase:firebase-core:10.0.1] C:\Users\u\.gradle\caches\transforms-1\files-1.1\firebase-core-10.0.1.aar\a3161e4b5fd3449fa1a14c7ec25d56a2\AndroidManifest.xml:4:5-42
MERGED from [com.google.firebase:firebase-messaging:10.0.1] C:\Users\u\.gradle\caches\transforms-1\files-1.1\firebase-messaging-10.0.1.aar\b17a9b4fe22e2d5832c19b5dceca737b\AndroidManifest.xml:17:5-42
MERGED from [com.google.firebase:firebase-messaging:10.0.1] C:\Users\u\.gradle\caches\transforms-1\files-1.1\firebase-messaging-10.0.1.aar\b17a9b4fe22e2d5832c19b5dceca737b\AndroidManifest.xml:17:5-42
MERGED from [com.google.firebase:firebase-analytics:10.0.1] C:\Users\u\.gradle\caches\transforms-1\files-1.1\firebase-analytics-10.0.1.aar\b4196c9cffe670cc96474786719121e2\AndroidManifest.xml:17:5-42
MERGED from [com.google.firebase:firebase-analytics:10.0.1] C:\Users\u\.gradle\caches\transforms-1\files-1.1\firebase-analytics-10.0.1.aar\b4196c9cffe670cc96474786719121e2\AndroidManifest.xml:17:5-42
MERGED from [com.google.firebase:firebase-analytics-impl:10.0.1] C:\Users\u\.gradle\caches\transforms-1\files-1.1\firebase-analytics-impl-10.0.1.aar\710fa0bddaa34df451db663408657efd\AndroidManifest.xml:17:5-42
MERGED from [com.google.firebase:firebase-analytics-impl:10.0.1] C:\Users\u\.gradle\caches\transforms-1\files-1.1\firebase-analytics-impl-10.0.1.aar\710fa0bddaa34df451db663408657efd\AndroidManifest.xml:17:5-42
MERGED from [com.google.firebase:firebase-iid:10.0.1] C:\Users\u\.gradle\caches\transforms-1\files-1.1\firebase-iid-10.0.1.aar\1fdaa36dba592fddc837f4564218f6ad\AndroidManifest.xml:17:5-42
MERGED from [com.google.firebase:firebase-iid:10.0.1] C:\Users\u\.gradle\caches\transforms-1\files-1.1\firebase-iid-10.0.1.aar\1fdaa36dba592fddc837f4564218f6ad\AndroidManifest.xml:17:5-42
MERGED from [com.google.firebase:firebase-common:10.0.1] C:\Users\u\.gradle\caches\transforms-1\files-1.1\firebase-common-10.0.1.aar\d0ec1737f031c93a27eec31f069b6f0c\AndroidManifest.xml:3:5-42
MERGED from [com.google.firebase:firebase-common:10.0.1] C:\Users\u\.gradle\caches\transforms-1\files-1.1\firebase-common-10.0.1.aar\d0ec1737f031c93a27eec31f069b6f0c\AndroidManifest.xml:3:5-42
MERGED from [com.google.android.gms:play-services-tasks:10.0.1] C:\Users\u\.gradle\caches\transforms-1\files-1.1\play-services-tasks-10.0.1.aar\f735c1ef62f97b04361aa8d6f47f4574\AndroidManifest.xml:3:5-42
MERGED from [com.google.android.gms:play-services-tasks:10.0.1] C:\Users\u\.gradle\caches\transforms-1\files-1.1\play-services-tasks-10.0.1.aar\f735c1ef62f97b04361aa8d6f47f4574\AndroidManifest.xml:3:5-42
MERGED from [com.google.android.gms:play-services-basement:10.0.1] C:\Users\u\.gradle\caches\transforms-1\files-1.1\play-services-basement-10.0.1.aar\79e0b8ab6ac4bfef522bc2c5a4ed176f\AndroidManifest.xml:17:5-42
MERGED from [com.google.android.gms:play-services-basement:10.0.1] C:\Users\u\.gradle\caches\transforms-1\files-1.1\play-services-basement-10.0.1.aar\79e0b8ab6ac4bfef522bc2c5a4ed176f\AndroidManifest.xml:17:5-42
MERGED from [com.android.support:support-v4:28.0.0] C:\Users\u\.gradle\caches\transforms-1\files-1.1\support-v4-28.0.0.aar\939a9d7cdb9d5b77699dddc97dd5431c\AndroidManifest.xml:20:5-44
MERGED from [com.android.support:support-v4:28.0.0] C:\Users\u\.gradle\caches\transforms-1\files-1.1\support-v4-28.0.0.aar\939a9d7cdb9d5b77699dddc97dd5431c\AndroidManifest.xml:20:5-44
MERGED from [com.android.support:appcompat-v7:28.0.0] C:\Users\u\.gradle\caches\transforms-1\files-1.1\appcompat-v7-28.0.0.aar\8b23e7b170664b6e574ce0e0ba706eec\AndroidManifest.xml:20:5-44
MERGED from [com.android.support:appcompat-v7:28.0.0] C:\Users\u\.gradle\caches\transforms-1\files-1.1\appcompat-v7-28.0.0.aar\8b23e7b170664b6e574ce0e0ba706eec\AndroidManifest.xml:20:5-44
MERGED from [:library] D:\android_project\B2 Project\shoukin\Projects\Securitygard\library\build\intermediates\library_manifest\debug\AndroidManifest.xml:7:5-9:41
MERGED from [:library] D:\android_project\B2 Project\shoukin\Projects\Securitygard\library\build\intermediates\library_manifest\debug\AndroidManifest.xml:7:5-9:41
MERGED from [com.android.support:support-media-compat:28.0.0] C:\Users\u\.gradle\caches\transforms-1\files-1.1\support-media-compat-28.0.0.aar\ca5687d270c981a3e1c363ce5bc188df\AndroidManifest.xml:20:5-44
MERGED from [com.android.support:support-media-compat:28.0.0] C:\Users\u\.gradle\caches\transforms-1\files-1.1\support-media-compat-28.0.0.aar\ca5687d270c981a3e1c363ce5bc188df\AndroidManifest.xml:20:5-44
MERGED from [com.android.support:support-fragment:28.0.0] C:\Users\u\.gradle\caches\transforms-1\files-1.1\support-fragment-28.0.0.aar\7a5f7d9441c63fec156ee7cf4658269e\AndroidManifest.xml:20:5-44
MERGED from [com.android.support:support-fragment:28.0.0] C:\Users\u\.gradle\caches\transforms-1\files-1.1\support-fragment-28.0.0.aar\7a5f7d9441c63fec156ee7cf4658269e\AndroidManifest.xml:20:5-44
MERGED from [com.android.support:animated-vector-drawable:28.0.0] C:\Users\u\.gradle\caches\transforms-1\files-1.1\animated-vector-drawable-28.0.0.aar\422950a5e2569393ea46320af31f5bd4\AndroidManifest.xml:20:5-44
MERGED from [com.android.support:animated-vector-drawable:28.0.0] C:\Users\u\.gradle\caches\transforms-1\files-1.1\animated-vector-drawable-28.0.0.aar\422950a5e2569393ea46320af31f5bd4\AndroidManifest.xml:20:5-44
MERGED from [com.android.support:support-core-ui:28.0.0] C:\Users\u\.gradle\caches\transforms-1\files-1.1\support-core-ui-28.0.0.aar\2ef1ec41029ad3594987bd8a30f47c90\AndroidManifest.xml:20:5-44
MERGED from [com.android.support:support-core-ui:28.0.0] C:\Users\u\.gradle\caches\transforms-1\files-1.1\support-core-ui-28.0.0.aar\2ef1ec41029ad3594987bd8a30f47c90\AndroidManifest.xml:20:5-44
MERGED from [com.android.support:support-core-utils:28.0.0] C:\Users\u\.gradle\caches\transforms-1\files-1.1\support-core-utils-28.0.0.aar\4123448a2ad4c10f0495cc3c3709cff5\AndroidManifest.xml:20:5-44
MERGED from [com.android.support:support-core-utils:28.0.0] C:\Users\u\.gradle\caches\transforms-1\files-1.1\support-core-utils-28.0.0.aar\4123448a2ad4c10f0495cc3c3709cff5\AndroidManifest.xml:20:5-44
MERGED from [com.android.support:support-vector-drawable:28.0.0] C:\Users\u\.gradle\caches\transforms-1\files-1.1\support-vector-drawable-28.0.0.aar\daff59afb86195e269844604a809fd51\AndroidManifest.xml:20:5-44
MERGED from [com.android.support:support-vector-drawable:28.0.0] C:\Users\u\.gradle\caches\transforms-1\files-1.1\support-vector-drawable-28.0.0.aar\daff59afb86195e269844604a809fd51\AndroidManifest.xml:20:5-44
MERGED from [com.android.support:loader:28.0.0] C:\Users\u\.gradle\caches\transforms-1\files-1.1\loader-28.0.0.aar\f7ef36c04114fa4edb28de447b639b00\AndroidManifest.xml:20:5-44
MERGED from [com.android.support:loader:28.0.0] C:\Users\u\.gradle\caches\transforms-1\files-1.1\loader-28.0.0.aar\f7ef36c04114fa4edb28de447b639b00\AndroidManifest.xml:20:5-44
MERGED from [com.android.support:viewpager:28.0.0] C:\Users\u\.gradle\caches\transforms-1\files-1.1\viewpager-28.0.0.aar\772e232533c51685b07ded49daca3fdf\AndroidManifest.xml:20:5-44
MERGED from [com.android.support:viewpager:28.0.0] C:\Users\u\.gradle\caches\transforms-1\files-1.1\viewpager-28.0.0.aar\772e232533c51685b07ded49daca3fdf\AndroidManifest.xml:20:5-44
MERGED from [com.android.support:coordinatorlayout:28.0.0] C:\Users\u\.gradle\caches\transforms-1\files-1.1\coordinatorlayout-28.0.0.aar\4ff121a10b9f8cfbd97e30b2beca01e6\AndroidManifest.xml:20:5-44
MERGED from [com.android.support:coordinatorlayout:28.0.0] C:\Users\u\.gradle\caches\transforms-1\files-1.1\coordinatorlayout-28.0.0.aar\4ff121a10b9f8cfbd97e30b2beca01e6\AndroidManifest.xml:20:5-44
MERGED from [com.android.support:drawerlayout:28.0.0] C:\Users\u\.gradle\caches\transforms-1\files-1.1\drawerlayout-28.0.0.aar\d3b17ec053fcdb8b6c9dffaebb16254e\AndroidManifest.xml:20:5-44
MERGED from [com.android.support:drawerlayout:28.0.0] C:\Users\u\.gradle\caches\transforms-1\files-1.1\drawerlayout-28.0.0.aar\d3b17ec053fcdb8b6c9dffaebb16254e\AndroidManifest.xml:20:5-44
MERGED from [com.android.support:slidingpanelayout:28.0.0] C:\Users\u\.gradle\caches\transforms-1\files-1.1\slidingpanelayout-28.0.0.aar\9f229cfb17479e197660bdc1fd83404c\AndroidManifest.xml:20:5-44
MERGED from [com.android.support:slidingpanelayout:28.0.0] C:\Users\u\.gradle\caches\transforms-1\files-1.1\slidingpanelayout-28.0.0.aar\9f229cfb17479e197660bdc1fd83404c\AndroidManifest.xml:20:5-44
MERGED from [com.android.support:customview:28.0.0] C:\Users\u\.gradle\caches\transforms-1\files-1.1\customview-28.0.0.aar\515dfb2c6b0da0929ee6a859ee9d8c2e\AndroidManifest.xml:20:5-44
MERGED from [com.android.support:customview:28.0.0] C:\Users\u\.gradle\caches\transforms-1\files-1.1\customview-28.0.0.aar\515dfb2c6b0da0929ee6a859ee9d8c2e\AndroidManifest.xml:20:5-44
MERGED from [com.android.support:swiperefreshlayout:28.0.0] C:\Users\u\.gradle\caches\transforms-1\files-1.1\swiperefreshlayout-28.0.0.aar\f9f70292ff400213741fdc04d20a7e52\AndroidManifest.xml:20:5-44
MERGED from [com.android.support:swiperefreshlayout:28.0.0] C:\Users\u\.gradle\caches\transforms-1\files-1.1\swiperefreshlayout-28.0.0.aar\f9f70292ff400213741fdc04d20a7e52\AndroidManifest.xml:20:5-44
MERGED from [com.android.support:asynclayoutinflater:28.0.0] C:\Users\u\.gradle\caches\transforms-1\files-1.1\asynclayoutinflater-28.0.0.aar\68a57a6f2b052f8f8b7d349be055feae\AndroidManifest.xml:20:5-44
MERGED from [com.android.support:asynclayoutinflater:28.0.0] C:\Users\u\.gradle\caches\transforms-1\files-1.1\asynclayoutinflater-28.0.0.aar\68a57a6f2b052f8f8b7d349be055feae\AndroidManifest.xml:20:5-44
MERGED from [com.android.support:support-compat:28.0.0] C:\Users\u\.gradle\caches\transforms-1\files-1.1\support-compat-28.0.0.aar\1a529bd87ecb345c73220ba1e1cb6b69\AndroidManifest.xml:20:5-44
MERGED from [com.android.support:support-compat:28.0.0] C:\Users\u\.gradle\caches\transforms-1\files-1.1\support-compat-28.0.0.aar\1a529bd87ecb345c73220ba1e1cb6b69\AndroidManifest.xml:20:5-44
MERGED from [com.android.support:versionedparcelable:28.0.0] C:\Users\u\.gradle\caches\transforms-1\files-1.1\versionedparcelable-28.0.0.aar\011f574da5cd03c86ec825a85898cf1e\AndroidManifest.xml:20:5-44
MERGED from [com.android.support:versionedparcelable:28.0.0] C:\Users\u\.gradle\caches\transforms-1\files-1.1\versionedparcelable-28.0.0.aar\011f574da5cd03c86ec825a85898cf1e\AndroidManifest.xml:20:5-44
MERGED from [com.android.support:cursoradapter:28.0.0] C:\Users\u\.gradle\caches\transforms-1\files-1.1\cursoradapter-28.0.0.aar\a19f2bab74c63291209fc61e0e24aaea\AndroidManifest.xml:20:5-44
MERGED from [com.android.support:cursoradapter:28.0.0] C:\Users\u\.gradle\caches\transforms-1\files-1.1\cursoradapter-28.0.0.aar\a19f2bab74c63291209fc61e0e24aaea\AndroidManifest.xml:20:5-44
MERGED from [android.arch.lifecycle:runtime:1.1.1] C:\Users\u\.gradle\caches\transforms-1\files-1.1\runtime-1.1.1.aar\8283124dc37e4cb3680992377b1342e7\AndroidManifest.xml:20:5-44
MERGED from [android.arch.lifecycle:runtime:1.1.1] C:\Users\u\.gradle\caches\transforms-1\files-1.1\runtime-1.1.1.aar\8283124dc37e4cb3680992377b1342e7\AndroidManifest.xml:20:5-44
MERGED from [com.android.support:documentfile:28.0.0] C:\Users\u\.gradle\caches\transforms-1\files-1.1\documentfile-28.0.0.aar\fd94a13992cf7880ab7f517e4ffedba6\AndroidManifest.xml:20:5-44
MERGED from [com.android.support:documentfile:28.0.0] C:\Users\u\.gradle\caches\transforms-1\files-1.1\documentfile-28.0.0.aar\fd94a13992cf7880ab7f517e4ffedba6\AndroidManifest.xml:20:5-44
MERGED from [com.android.support:localbroadcastmanager:28.0.0] C:\Users\u\.gradle\caches\transforms-1\files-1.1\localbroadcastmanager-28.0.0.aar\8582080139a49550f3946b47206fc6e5\AndroidManifest.xml:20:5-44
MERGED from [com.android.support:localbroadcastmanager:28.0.0] C:\Users\u\.gradle\caches\transforms-1\files-1.1\localbroadcastmanager-28.0.0.aar\8582080139a49550f3946b47206fc6e5\AndroidManifest.xml:20:5-44
MERGED from [com.android.support:print:28.0.0] C:\Users\u\.gradle\caches\transforms-1\files-1.1\print-28.0.0.aar\17f13791aad65c7912e93552d1eb4789\AndroidManifest.xml:20:5-44
MERGED from [com.android.support:print:28.0.0] C:\Users\u\.gradle\caches\transforms-1\files-1.1\print-28.0.0.aar\17f13791aad65c7912e93552d1eb4789\AndroidManifest.xml:20:5-44
MERGED from [com.android.support:interpolator:28.0.0] C:\Users\u\.gradle\caches\transforms-1\files-1.1\interpolator-28.0.0.aar\5c94b1879111c8229c5940257c82a211\AndroidManifest.xml:20:5-44
MERGED from [com.android.support:interpolator:28.0.0] C:\Users\u\.gradle\caches\transforms-1\files-1.1\interpolator-28.0.0.aar\5c94b1879111c8229c5940257c82a211\AndroidManifest.xml:20:5-44
MERGED from [android.arch.lifecycle:viewmodel:1.1.1] C:\Users\u\.gradle\caches\transforms-1\files-1.1\viewmodel-1.1.1.aar\124e98bafdc251301b1f983895d49d22\AndroidManifest.xml:20:5-44
MERGED from [android.arch.lifecycle:viewmodel:1.1.1] C:\Users\u\.gradle\caches\transforms-1\files-1.1\viewmodel-1.1.1.aar\124e98bafdc251301b1f983895d49d22\AndroidManifest.xml:20:5-44
MERGED from [android.arch.lifecycle:livedata:1.1.1] C:\Users\u\.gradle\caches\transforms-1\files-1.1\livedata-1.1.1.aar\9e0f2f002f8d6e617c96478bad9b07aa\AndroidManifest.xml:20:5-44
MERGED from [android.arch.lifecycle:livedata:1.1.1] C:\Users\u\.gradle\caches\transforms-1\files-1.1\livedata-1.1.1.aar\9e0f2f002f8d6e617c96478bad9b07aa\AndroidManifest.xml:20:5-44
MERGED from [android.arch.lifecycle:livedata-core:1.1.1] C:\Users\u\.gradle\caches\transforms-1\files-1.1\livedata-core-1.1.1.aar\5d19707c5dbe8db6130a5da0d75dbfa0\AndroidManifest.xml:20:5-44
MERGED from [android.arch.lifecycle:livedata-core:1.1.1] C:\Users\u\.gradle\caches\transforms-1\files-1.1\livedata-core-1.1.1.aar\5d19707c5dbe8db6130a5da0d75dbfa0\AndroidManifest.xml:20:5-44
MERGED from [android.arch.core:runtime:1.1.1] C:\Users\u\.gradle\caches\transforms-1\files-1.1\runtime-1.1.1.aar\0e73d56c88674190af34b9da387ca141\AndroidManifest.xml:20:5-44
MERGED from [android.arch.core:runtime:1.1.1] C:\Users\u\.gradle\caches\transforms-1\files-1.1\runtime-1.1.1.aar\0e73d56c88674190af34b9da387ca141\AndroidManifest.xml:20:5-44
INJECTED from D:\android_project\B2 Project\shoukin\Projects\Securitygard\app\src\main\AndroidManifest.xml
INJECTED from D:\android_project\B2 Project\shoukin\Projects\Securitygard\app\src\main\AndroidManifest.xml
	android:targetSdkVersion
		INJECTED from D:\android_project\B2 Project\shoukin\Projects\Securitygard\app\src\main\AndroidManifest.xml
		ADDED from D:\android_project\B2 Project\shoukin\Projects\Securitygard\app\src\main\AndroidManifest.xml
		INJECTED from D:\android_project\B2 Project\shoukin\Projects\Securitygard\app\src\main\AndroidManifest.xml
	android:minSdkVersion
		INJECTED from D:\android_project\B2 Project\shoukin\Projects\Securitygard\app\src\main\AndroidManifest.xml
		ADDED from D:\android_project\B2 Project\shoukin\Projects\Securitygard\app\src\main\AndroidManifest.xml
		INJECTED from D:\android_project\B2 Project\shoukin\Projects\Securitygard\app\src\main\AndroidManifest.xml
service#com.google.firebase.messaging.FirebaseMessagingService
ADDED from [com.google.firebase:firebase-messaging:10.0.1] C:\Users\u\.gradle\caches\transforms-1\files-1.1\firebase-messaging-10.0.1.aar\b17a9b4fe22e2d5832c19b5dceca737b\AndroidManifest.xml:23:9-27:19
	android:exported
		ADDED from [com.google.firebase:firebase-messaging:10.0.1] C:\Users\u\.gradle\caches\transforms-1\files-1.1\firebase-messaging-10.0.1.aar\b17a9b4fe22e2d5832c19b5dceca737b\AndroidManifest.xml:23:88-111
	android:name
		ADDED from [com.google.firebase:firebase-messaging:10.0.1] C:\Users\u\.gradle\caches\transforms-1\files-1.1\firebase-messaging-10.0.1.aar\b17a9b4fe22e2d5832c19b5dceca737b\AndroidManifest.xml:23:18-87
uses-permission#android.permission.WAKE_LOCK
ADDED from [com.google.firebase:firebase-analytics:10.0.1] C:\Users\u\.gradle\caches\transforms-1\files-1.1\firebase-analytics-10.0.1.aar\b4196c9cffe670cc96474786719121e2\AndroidManifest.xml:22:5-67
MERGED from [com.google.firebase:firebase-analytics-impl:10.0.1] C:\Users\u\.gradle\caches\transforms-1\files-1.1\firebase-analytics-impl-10.0.1.aar\710fa0bddaa34df451db663408657efd\AndroidManifest.xml:22:5-67
MERGED from [com.google.firebase:firebase-analytics-impl:10.0.1] C:\Users\u\.gradle\caches\transforms-1\files-1.1\firebase-analytics-impl-10.0.1.aar\710fa0bddaa34df451db663408657efd\AndroidManifest.xml:22:5-67
MERGED from [com.google.firebase:firebase-iid:10.0.1] C:\Users\u\.gradle\caches\transforms-1\files-1.1\firebase-iid-10.0.1.aar\1fdaa36dba592fddc837f4564218f6ad\AndroidManifest.xml:21:5-67
MERGED from [com.google.firebase:firebase-iid:10.0.1] C:\Users\u\.gradle\caches\transforms-1\files-1.1\firebase-iid-10.0.1.aar\1fdaa36dba592fddc837f4564218f6ad\AndroidManifest.xml:21:5-67
	android:name
		ADDED from [com.google.firebase:firebase-analytics:10.0.1] C:\Users\u\.gradle\caches\transforms-1\files-1.1\firebase-analytics-10.0.1.aar\b4196c9cffe670cc96474786719121e2\AndroidManifest.xml:22:22-65
receiver#com.google.android.gms.measurement.AppMeasurementReceiver
ADDED from [com.google.firebase:firebase-analytics:10.0.1] C:\Users\u\.gradle\caches\transforms-1\files-1.1\firebase-analytics-10.0.1.aar\b4196c9cffe670cc96474786719121e2\AndroidManifest.xml:25:7-26:18
MERGED from [com.google.firebase:firebase-analytics-impl:10.0.1] C:\Users\u\.gradle\caches\transforms-1\files-1.1\firebase-analytics-impl-10.0.1.aar\710fa0bddaa34df451db663408657efd\AndroidManifest.xml:25:7-26:18
MERGED from [com.google.firebase:firebase-analytics-impl:10.0.1] C:\Users\u\.gradle\caches\transforms-1\files-1.1\firebase-analytics-impl-10.0.1.aar\710fa0bddaa34df451db663408657efd\AndroidManifest.xml:25:7-26:18
	android:enabled
		ADDED from [com.google.firebase:firebase-analytics:10.0.1] C:\Users\u\.gradle\caches\transforms-1\files-1.1\firebase-analytics-10.0.1.aar\b4196c9cffe670cc96474786719121e2\AndroidManifest.xml:25:90-112
	android:exported
		ADDED from [com.google.firebase:firebase-analytics:10.0.1] C:\Users\u\.gradle\caches\transforms-1\files-1.1\firebase-analytics-10.0.1.aar\b4196c9cffe670cc96474786719121e2\AndroidManifest.xml:25:113-137
	android:name
		ADDED from [com.google.firebase:firebase-analytics:10.0.1] C:\Users\u\.gradle\caches\transforms-1\files-1.1\firebase-analytics-10.0.1.aar\b4196c9cffe670cc96474786719121e2\AndroidManifest.xml:25:17-89
receiver#com.google.android.gms.measurement.AppMeasurementInstallReferrerReceiver
ADDED from [com.google.firebase:firebase-analytics:10.0.1] C:\Users\u\.gradle\caches\transforms-1\files-1.1\firebase-analytics-10.0.1.aar\b4196c9cffe670cc96474786719121e2\AndroidManifest.xml:27:7-31:18
	android:enabled
		ADDED from [com.google.firebase:firebase-analytics:10.0.1] C:\Users\u\.gradle\caches\transforms-1\files-1.1\firebase-analytics-10.0.1.aar\b4196c9cffe670cc96474786719121e2\AndroidManifest.xml:27:162-184
	android:permission
		ADDED from [com.google.firebase:firebase-analytics:10.0.1] C:\Users\u\.gradle\caches\transforms-1\files-1.1\firebase-analytics-10.0.1.aar\b4196c9cffe670cc96474786719121e2\AndroidManifest.xml:27:105-161
	android:name
		ADDED from [com.google.firebase:firebase-analytics:10.0.1] C:\Users\u\.gradle\caches\transforms-1\files-1.1\firebase-analytics-10.0.1.aar\b4196c9cffe670cc96474786719121e2\AndroidManifest.xml:27:17-104
intent-filter#action:name:com.android.vending.INSTALL_REFERRER
ADDED from [com.google.firebase:firebase-analytics:10.0.1] C:\Users\u\.gradle\caches\transforms-1\files-1.1\firebase-analytics-10.0.1.aar\b4196c9cffe670cc96474786719121e2\AndroidManifest.xml:28:11-30:27
action#com.android.vending.INSTALL_REFERRER
ADDED from [com.google.firebase:firebase-analytics:10.0.1] C:\Users\u\.gradle\caches\transforms-1\files-1.1\firebase-analytics-10.0.1.aar\b4196c9cffe670cc96474786719121e2\AndroidManifest.xml:29:15-76
	android:name
		ADDED from [com.google.firebase:firebase-analytics:10.0.1] C:\Users\u\.gradle\caches\transforms-1\files-1.1\firebase-analytics-10.0.1.aar\b4196c9cffe670cc96474786719121e2\AndroidManifest.xml:29:23-74
service#com.google.android.gms.measurement.AppMeasurementService
ADDED from [com.google.firebase:firebase-analytics:10.0.1] C:\Users\u\.gradle\caches\transforms-1\files-1.1\firebase-analytics-10.0.1.aar\b4196c9cffe670cc96474786719121e2\AndroidManifest.xml:32:7-137
MERGED from [com.google.firebase:firebase-analytics-impl:10.0.1] C:\Users\u\.gradle\caches\transforms-1\files-1.1\firebase-analytics-impl-10.0.1.aar\710fa0bddaa34df451db663408657efd\AndroidManifest.xml:27:7-137
MERGED from [com.google.firebase:firebase-analytics-impl:10.0.1] C:\Users\u\.gradle\caches\transforms-1\files-1.1\firebase-analytics-impl-10.0.1.aar\710fa0bddaa34df451db663408657efd\AndroidManifest.xml:27:7-137
	android:enabled
		ADDED from [com.google.firebase:firebase-analytics:10.0.1] C:\Users\u\.gradle\caches\transforms-1\files-1.1\firebase-analytics-10.0.1.aar\b4196c9cffe670cc96474786719121e2\AndroidManifest.xml:32:88-110
	android:exported
		ADDED from [com.google.firebase:firebase-analytics:10.0.1] C:\Users\u\.gradle\caches\transforms-1\files-1.1\firebase-analytics-10.0.1.aar\b4196c9cffe670cc96474786719121e2\AndroidManifest.xml:32:111-135
	android:name
		ADDED from [com.google.firebase:firebase-analytics:10.0.1] C:\Users\u\.gradle\caches\transforms-1\files-1.1\firebase-analytics-10.0.1.aar\b4196c9cffe670cc96474786719121e2\AndroidManifest.xml:32:16-87
uses-permission#com.google.android.c2dm.permission.RECEIVE
ADDED from [com.google.firebase:firebase-iid:10.0.1] C:\Users\u\.gradle\caches\transforms-1\files-1.1\firebase-iid-10.0.1.aar\1fdaa36dba592fddc837f4564218f6ad\AndroidManifest.xml:22:5-81
	android:name
		ADDED from [com.google.firebase:firebase-iid:10.0.1] C:\Users\u\.gradle\caches\transforms-1\files-1.1\firebase-iid-10.0.1.aar\1fdaa36dba592fddc837f4564218f6ad\AndroidManifest.xml:22:22-79
permission#${applicationId}.permission.C2D_MESSAGE
ADDED from [com.google.firebase:firebase-iid:10.0.1] C:\Users\u\.gradle\caches\transforms-1\files-1.1\firebase-iid-10.0.1.aar\1fdaa36dba592fddc837f4564218f6ad\AndroidManifest.xml:24:5-109
	android:protectionLevel
		ADDED from [com.google.firebase:firebase-iid:10.0.1] C:\Users\u\.gradle\caches\transforms-1\files-1.1\firebase-iid-10.0.1.aar\1fdaa36dba592fddc837f4564218f6ad\AndroidManifest.xml:24:72-107
	android:name
		ADDED from [com.google.firebase:firebase-iid:10.0.1] C:\Users\u\.gradle\caches\transforms-1\files-1.1\firebase-iid-10.0.1.aar\1fdaa36dba592fddc837f4564218f6ad\AndroidManifest.xml:24:17-71
permission#com.b2infosoft.gt.permission.C2D_MESSAGE
ADDED from [com.google.firebase:firebase-iid:10.0.1] C:\Users\u\.gradle\caches\transforms-1\files-1.1\firebase-iid-10.0.1.aar\1fdaa36dba592fddc837f4564218f6ad\AndroidManifest.xml:24:5-109
	android:protectionLevel
		ADDED from [com.google.firebase:firebase-iid:10.0.1] C:\Users\u\.gradle\caches\transforms-1\files-1.1\firebase-iid-10.0.1.aar\1fdaa36dba592fddc837f4564218f6ad\AndroidManifest.xml:24:72-107
	android:name
		ADDED from [com.google.firebase:firebase-iid:10.0.1] C:\Users\u\.gradle\caches\transforms-1\files-1.1\firebase-iid-10.0.1.aar\1fdaa36dba592fddc837f4564218f6ad\AndroidManifest.xml:24:17-71
uses-permission#${applicationId}.permission.C2D_MESSAGE
ADDED from [com.google.firebase:firebase-iid:10.0.1] C:\Users\u\.gradle\caches\transforms-1\files-1.1\firebase-iid-10.0.1.aar\1fdaa36dba592fddc837f4564218f6ad\AndroidManifest.xml:26:5-78
	android:name
		ADDED from [com.google.firebase:firebase-iid:10.0.1] C:\Users\u\.gradle\caches\transforms-1\files-1.1\firebase-iid-10.0.1.aar\1fdaa36dba592fddc837f4564218f6ad\AndroidManifest.xml:26:22-76
uses-permission#com.b2infosoft.gt.permission.C2D_MESSAGE
ADDED from [com.google.firebase:firebase-iid:10.0.1] C:\Users\u\.gradle\caches\transforms-1\files-1.1\firebase-iid-10.0.1.aar\1fdaa36dba592fddc837f4564218f6ad\AndroidManifest.xml:26:5-78
	android:name
		ADDED from [com.google.firebase:firebase-iid:10.0.1] C:\Users\u\.gradle\caches\transforms-1\files-1.1\firebase-iid-10.0.1.aar\1fdaa36dba592fddc837f4564218f6ad\AndroidManifest.xml:26:22-76
receiver#com.google.firebase.iid.FirebaseInstanceIdReceiver
ADDED from [com.google.firebase:firebase-iid:10.0.1] C:\Users\u\.gradle\caches\transforms-1\files-1.1\firebase-iid-10.0.1.aar\1fdaa36dba592fddc837f4564218f6ad\AndroidManifest.xml:30:9-36:20
	android:exported
		ADDED from [com.google.firebase:firebase-iid:10.0.1] C:\Users\u\.gradle\caches\transforms-1\files-1.1\firebase-iid-10.0.1.aar\1fdaa36dba592fddc837f4564218f6ad\AndroidManifest.xml:30:85-108
	android:permission
		ADDED from [com.google.firebase:firebase-iid:10.0.1] C:\Users\u\.gradle\caches\transforms-1\files-1.1\firebase-iid-10.0.1.aar\1fdaa36dba592fddc837f4564218f6ad\AndroidManifest.xml:30:109-169
	android:name
		ADDED from [com.google.firebase:firebase-iid:10.0.1] C:\Users\u\.gradle\caches\transforms-1\files-1.1\firebase-iid-10.0.1.aar\1fdaa36dba592fddc837f4564218f6ad\AndroidManifest.xml:30:19-84
intent-filter#action:name:com.google.android.c2dm.intent.RECEIVE+action:name:com.google.android.c2dm.intent.REGISTRATION+category:name:${applicationId}
ADDED from [com.google.firebase:firebase-iid:10.0.1] C:\Users\u\.gradle\caches\transforms-1\files-1.1\firebase-iid-10.0.1.aar\1fdaa36dba592fddc837f4564218f6ad\AndroidManifest.xml:31:13-35:29
intent-filter#action:name:com.google.android.c2dm.intent.RECEIVE+action:name:com.google.android.c2dm.intent.REGISTRATION+category:name:com.b2infosoft.gt
ADDED from [com.google.firebase:firebase-iid:10.0.1] C:\Users\u\.gradle\caches\transforms-1\files-1.1\firebase-iid-10.0.1.aar\1fdaa36dba592fddc837f4564218f6ad\AndroidManifest.xml:31:13-35:29
action#com.google.android.c2dm.intent.RECEIVE
ADDED from [com.google.firebase:firebase-iid:10.0.1] C:\Users\u\.gradle\caches\transforms-1\files-1.1\firebase-iid-10.0.1.aar\1fdaa36dba592fddc837f4564218f6ad\AndroidManifest.xml:32:17-80
	android:name
		ADDED from [com.google.firebase:firebase-iid:10.0.1] C:\Users\u\.gradle\caches\transforms-1\files-1.1\firebase-iid-10.0.1.aar\1fdaa36dba592fddc837f4564218f6ad\AndroidManifest.xml:32:25-78
action#com.google.android.c2dm.intent.REGISTRATION
ADDED from [com.google.firebase:firebase-iid:10.0.1] C:\Users\u\.gradle\caches\transforms-1\files-1.1\firebase-iid-10.0.1.aar\1fdaa36dba592fddc837f4564218f6ad\AndroidManifest.xml:33:17-85
	android:name
		ADDED from [com.google.firebase:firebase-iid:10.0.1] C:\Users\u\.gradle\caches\transforms-1\files-1.1\firebase-iid-10.0.1.aar\1fdaa36dba592fddc837f4564218f6ad\AndroidManifest.xml:33:25-83
category#${applicationId}
ADDED from [com.google.firebase:firebase-iid:10.0.1] C:\Users\u\.gradle\caches\transforms-1\files-1.1\firebase-iid-10.0.1.aar\1fdaa36dba592fddc837f4564218f6ad\AndroidManifest.xml:34:17-60
	android:name
		ADDED from [com.google.firebase:firebase-iid:10.0.1] C:\Users\u\.gradle\caches\transforms-1\files-1.1\firebase-iid-10.0.1.aar\1fdaa36dba592fddc837f4564218f6ad\AndroidManifest.xml:34:27-58
category#com.b2infosoft.gt
ADDED from [com.google.firebase:firebase-iid:10.0.1] C:\Users\u\.gradle\caches\transforms-1\files-1.1\firebase-iid-10.0.1.aar\1fdaa36dba592fddc837f4564218f6ad\AndroidManifest.xml:34:17-60
	android:name
		ADDED from [com.google.firebase:firebase-iid:10.0.1] C:\Users\u\.gradle\caches\transforms-1\files-1.1\firebase-iid-10.0.1.aar\1fdaa36dba592fddc837f4564218f6ad\AndroidManifest.xml:34:27-58
receiver#com.google.firebase.iid.FirebaseInstanceIdInternalReceiver
ADDED from [com.google.firebase:firebase-iid:10.0.1] C:\Users\u\.gradle\caches\transforms-1\files-1.1\firebase-iid-10.0.1.aar\1fdaa36dba592fddc837f4564218f6ad\AndroidManifest.xml:40:9-119
	android:exported
		ADDED from [com.google.firebase:firebase-iid:10.0.1] C:\Users\u\.gradle\caches\transforms-1\files-1.1\firebase-iid-10.0.1.aar\1fdaa36dba592fddc837f4564218f6ad\AndroidManifest.xml:40:93-117
	android:name
		ADDED from [com.google.firebase:firebase-iid:10.0.1] C:\Users\u\.gradle\caches\transforms-1\files-1.1\firebase-iid-10.0.1.aar\1fdaa36dba592fddc837f4564218f6ad\AndroidManifest.xml:40:19-92
service#com.google.firebase.iid.FirebaseInstanceIdService
ADDED from [com.google.firebase:firebase-iid:10.0.1] C:\Users\u\.gradle\caches\transforms-1\files-1.1\firebase-iid-10.0.1.aar\1fdaa36dba592fddc837f4564218f6ad\AndroidManifest.xml:44:9-48:19
	android:exported
		ADDED from [com.google.firebase:firebase-iid:10.0.1] C:\Users\u\.gradle\caches\transforms-1\files-1.1\firebase-iid-10.0.1.aar\1fdaa36dba592fddc837f4564218f6ad\AndroidManifest.xml:44:83-106
	android:name
		ADDED from [com.google.firebase:firebase-iid:10.0.1] C:\Users\u\.gradle\caches\transforms-1\files-1.1\firebase-iid-10.0.1.aar\1fdaa36dba592fddc837f4564218f6ad\AndroidManifest.xml:44:18-82
provider#com.google.firebase.provider.FirebaseInitProvider
ADDED from [com.google.firebase:firebase-common:10.0.1] C:\Users\u\.gradle\caches\transforms-1\files-1.1\firebase-common-10.0.1.aar\d0ec1737f031c93a27eec31f069b6f0c\AndroidManifest.xml:6:9-194
	android:authorities
		ADDED from [com.google.firebase:firebase-common:10.0.1] C:\Users\u\.gradle\caches\transforms-1\files-1.1\firebase-common-10.0.1.aar\d0ec1737f031c93a27eec31f069b6f0c\AndroidManifest.xml:6:19-78
	android:exported
		ADDED from [com.google.firebase:firebase-common:10.0.1] C:\Users\u\.gradle\caches\transforms-1\files-1.1\firebase-common-10.0.1.aar\d0ec1737f031c93a27eec31f069b6f0c\AndroidManifest.xml:6:144-168
	android:initOrder
		ADDED from [com.google.firebase:firebase-common:10.0.1] C:\Users\u\.gradle\caches\transforms-1\files-1.1\firebase-common-10.0.1.aar\d0ec1737f031c93a27eec31f069b6f0c\AndroidManifest.xml:6:169-192
	android:name
		ADDED from [com.google.firebase:firebase-common:10.0.1] C:\Users\u\.gradle\caches\transforms-1\files-1.1\firebase-common-10.0.1.aar\d0ec1737f031c93a27eec31f069b6f0c\AndroidManifest.xml:6:79-143
meta-data#com.google.android.gms.version
ADDED from [com.google.android.gms:play-services-basement:10.0.1] C:\Users\u\.gradle\caches\transforms-1\files-1.1\play-services-basement-10.0.1.aar\79e0b8ab6ac4bfef522bc2c5a4ed176f\AndroidManifest.xml:20:9-121
	android:value
		ADDED from [com.google.android.gms:play-services-basement:10.0.1] C:\Users\u\.gradle\caches\transforms-1\files-1.1\play-services-basement-10.0.1.aar\79e0b8ab6ac4bfef522bc2c5a4ed176f\AndroidManifest.xml:20:66-119
	android:name
		ADDED from [com.google.android.gms:play-services-basement:10.0.1] C:\Users\u\.gradle\caches\transforms-1\files-1.1\play-services-basement-10.0.1.aar\79e0b8ab6ac4bfef522bc2c5a4ed176f\AndroidManifest.xml:20:20-65
